Parte B/simulation/qsim/multi2sinsigno.msim.vcd
$comment
	File created using the following command:
		vcd file multi2sinsigno.msim.vcd -direction
$end
$date
	Thu Oct 23 01:11:19 2025
$end
$version
	ModelSim Version 10.1d
$end
$timescale
	1ps
$end
$scope module multi2sinsigno_vlg_vec_tst $end
$var reg 1 ! a0 $end
$var reg 1 " a1 $end
$var reg 1 # b0 $end
$var reg 1 $ b1 $end
$var reg 1 % Cin $end
$var wire 1 & Out0 $end
$var wire 1 ' Out1 $end
$var wire 1 ( Out2 $end
$var wire 1 ) Out3 $end
$var wire 1 * sampler $end
$scope module i1 $end
$var wire 1 + gnd $end
$var wire 1 , vcc $end
$var wire 1 - unknown $end
$var tri1 1 . devclrn $end
$var tri1 1 / devpor $end
$var tri1 1 0 devoe $end
$var wire 1 1 Out0~output_o $end
$var wire 1 2 Out1~output_o $end
$var wire 1 3 Out3~output_o $end
$var wire 1 4 Out2~output_o $end
$var wire 1 5 b0~input_o $end
$var wire 1 6 a0~input_o $end
$var wire 1 7 inst2~combout $end
$var wire 1 8 a1~input_o $end
$var wire 1 9 inst4~combout $end
$var wire 1 : b1~input_o $end
$var wire 1 ; Cin~input_o $end
$var wire 1 < inst|Sum~combout $end
$var wire 1 = inst5~combout $end
$var wire 1 > inst3~combout $end
$var wire 1 ? inst1|Cout~0_combout $end
$var wire 1 @ inst|Cout~0_combout $end
$var wire 1 A inst1|Sum~2_combout $end
$upscope $end
$upscope $end
$enddefinitions $end
#0
$dumpvars
0!
1"
1#
0$
0%
0&
1'
0(
0)
x*
0+
1,
x-
1.
1/
10
01
12
03
04
15
06
07
18
19
0:
0;
1<
0=
0>
0?
0@
0A
$end
#50000
1!
0"
0#
1$
16
08
05
1:
0*
1=
09
0<
02
0'
1<
12
1'
#100000
1#
0$
15
0:
1*
0=
17
0<
11
02
1&
0'
#150000
1"
1$
18
1:
0*
1>
19
1=
1A
1<
1@
14
12
1(
1'
1?
0<
13
02
1)
0'
0A
04
0(
#200000
0!
0#
0$
06
05
0:
1*
0=
0@
09
0>
1<
07
1A
12
01
14
1'
0&
1(
0?
0A
0<
03
04
02
0)
0(
0'
#250000
1!
1#
1$
16
15
1:
0*
1=
19
1>
1<
17
1A
1@
12
11
14
1'
1&
1(
1?
0<
13
02
1)
0'
0A
04
0(
#300000
0!
0$
06
0:
1*
0=
0>
1<
07
1A
0@
12
01
14
1'
0&
1(
0?
03
0)
0A
04
0(
#350000
0#
1!
1$
05
16
1:
0*
09
1=
1>
0<
1A
02
14
0'
1(
1<
12
1'
#400000
0"
1#
08
15
1*
0>
0A
17
04
11
0(
1&
#450000
0#
05
0*
07
01
0&
#500000
1"
1#
18
15
1*
1@
1>
19
1A
17
14
11
1(
1&
0A
1?
0<
04
13
02
0(
1)
0'
#550000
0!
0"
06
08
0*
0=
0@
0>
09
1<
07
1A
12
01
14
1'
0&
1(
0?
0A
0<
03
04
02
0)
0(
0'
#600000
0$
0#
1"
0:
05
18
1*
#650000
1!
16
0*
#700000
1$
1#
1:
15
1*
1>
1=
19
1A
1<
17
1@
14
12
11
1(
1'
1&
1?
0<
13
02
1)
0'
0A
04
0(
#750000
0"
0$
0#
08
0:
05
0*
0@
0>
09
0=
1A
1<
07
14
12
01
1(
1'
0&
0A
0?
0<
04
03
02
0(
0)
0'
#800000
0!
1"
1#
06
18
15
1*
19
1<
12
1'
#850000
1!
0#
16
05
0*
09
0<
02
0'
#900000
0!
1#
06
15
1*
19
1<
12
1'
#950000
0"
1!
0#
08
16
05
0*
09
0<
02
0'
