Parte_F/simulation/qsim/i2c.msim.vcd
$comment
	File created using the following command:
		vcd file i2c.msim.vcd -direction
$end
$date
	Sun Oct 26 18:37:57 2025
$end
$version
	ModelSim Version 10.1d
$end
$timescale
	1ps
$end
$scope module i2c_vlg_vec_tst $end
$var reg 1 ! clock $end
$var reg 1 " fin_dato $end
$var reg 1 # fin_dir $end
$var reg 1 $ reset $end
$var reg 1 % sda $end
$var reg 1 & soy $end
$var wire 1 ' ackout $end
$var wire 1 ( hab_dat $end
$var wire 1 ) hab_dir $end
$var wire 1 * sampler $end
$scope module i1 $end
$var wire 1 + gnd $end
$var wire 1 , vcc $end
$var wire 1 - unknown $end
$var tri1 1 . devclrn $end
$var tri1 1 / devpor $end
$var tri1 1 0 devoe $end
$var wire 1 1 fin_dir~input_o $end
$var wire 1 2 fin_dato~input_o $end
$var wire 1 3 hab_dir~output_o $end
$var wire 1 4 hab_dat~output_o $end
$var wire 1 5 ackout~output_o $end
$var wire 1 6 clock~input_o $end
$var wire 1 7 clock~inputclkctrl_outclk $end
$var wire 1 8 sda~input_o $end
$var wire 1 9 soy~input_o $end
$var wire 1 : reg_fstate.RW~0_combout $end
$var wire 1 ; reset~input_o $end
$var wire 1 < reset~inputclkctrl_outclk $end
$var wire 1 = fstate.RW~q $end
$var wire 1 > fstate.ACK~feeder_combout $end
$var wire 1 ? fstate.ACK~q $end
$var wire 1 @ Selector2~0_combout $end
$var wire 1 A fstate.guarda_dato~q $end
$var wire 1 B Selector0~0_combout $end
$var wire 1 C Selector0~1_combout $end
$var wire 1 D fstate.Idle~q $end
$var wire 1 E Selector1~0_combout $end
$var wire 1 F fstate.guarda_direc~q $end
$upscope $end
$upscope $end
$enddefinitions $end
#0
$dumpvars
0!
0"
1#
0$
1%
0&
0'
0(
0)
x*
0+
1,
x-
1.
1/
10
11
02
03
04
05
06
07
18
09
0:
0;
0<
0=
0>
0?
0@
0A
1B
0C
0D
0E
0F
$end
#7500
1!
16
17
0*
#15000
0!
06
07
1*
#20000
0#
0%
1&
01
08
19
0*
1E
0B
1C
#22500
1!
16
17
1*
1D
1F
13
1)
#30000
0!
06
07
0*
#37500
1!
16
17
1*
#40000
1#
11
0*
0E
1:
#45000
0!
06
07
1*
#52500
1!
16
17
0*
1=
0F
1>
0:
03
0)
#60000
1%
0&
0!
18
09
06
07
1*
#67500
1!
16
17
0*
0=
1?
0>
1@
15
1'
#75000
0!
06
07
1*
#80000
1"
0#
0%
12
01
08
0*
#82500
1!
16
17
1*
1A
0?
1B
0@
14
05
1(
0'
0C
#90000
0!
06
07
0*
#97500
1!
16
17
1*
0D
0A
1E
0B
04
0(
1C
#100000
1&
0"
19
02
0*
#105000
0!
06
07
1*
#112500
1!
16
17
0*
1D
1F
13
1)
#120000
0!
06
07
1*
#127500
1!
16
17
0*
#135000
0!
06
07
1*
#140000
1%
0&
18
09
0*
#142500
1!
16
17
1*
#150000
0!
06
07
0*
#157500
1!
16
17
1*
#160000
0%
08
0*
#165000
0!
06
07
1*
#172500
1!
16
17
0*
#180000
1"
1%
0!
12
18
06
07
1*
#187500
1!
16
17
0*
#195000
0!
06
07
1*
#200000
1#
0%
11
08
0*
0E
0C
#202500
1!
16
17
1*
0D
0F
1E
1C
03
0)
#210000
0!
06
07
0*
#217500
1!
16
17
1*
1D
1F
0E
0C
13
1)
#220000
1&
0#
1%
19
01
18
0*
1C
1E
#225000
0!
06
07
1*
#232500
1!
16
17
0*
#240000
0%
0!
08
06
07
1*
#247500
1!
16
17
0*
#255000
0!
06
07
1*
#260000
0"
1#
02
11
0*
0E
1:
#262500
1!
16
17
1*
1=
0F
1>
0:
03
0)
#270000
0!
06
07
0*
#277500
1!
16
17
1*
0=
1?
0>
1@
15
1'
#280000
1%
1"
0#
18
12
01
0*
#285000
0!
06
07
1*
#292500
1!
16
17
0*
1A
0?
1B
0@
14
05
1(
0'
0C
#300000
1#
0!
11
06
07
1*
#307500
1!
16
17
0*
0D
0A
04
0(
#315000
0!
06
07
1*
#320000
0&
0%
09
08
0*
1E
0B
1C
#322500
1!
16
17
1*
1D
1F
0E
0C
13
1)
#330000
0!
06
07
0*
#337500
1!
16
17
1*
0D
0F
1E
1C
03
0)
#340000
0"
0#
1&
1%
02
01
19
18
0*
1B
0E
0C
#345000
0!
06
07
1*
#352500
1!
16
17
0*
#360000
1"
1#
0!
12
11
06
07
1*
#367500
1!
16
17
0*
#375000
0!
06
07
1*
#380000
0&
0%
09
08
0*
1E
0B
1C
#382500
1!
16
17
1*
1D
1F
0E
0C
13
1)
#390000
0!
06
07
0*
#397500
1!
16
17
1*
0D
0F
1E
1C
03
0)
#400000
0"
02
0*
#405000
0!
06
07
1*
#412500
1!
16
17
0*
1D
1F
0E
0C
13
1)
#420000
1%
1"
0!
18
12
06
07
1*
#427500
1!
16
17
0*
0D
0F
1B
1C
03
0)
0C
#435000
0!
06
07
1*
#440000
1&
0%
19
08
0*
1E
0B
1C
#442500
1!
16
17
1*
1D
1F
0E
1:
13
1)
#450000
0!
06
07
0*
#457500
1!
16
17
1*
1=
0F
1>
0:
03
0)
#460000
0"
1%
02
18
0*
#465000
0!
06
07
1*
#472500
1!
16
17
0*
0=
1?
0>
1@
15
1'
#480000
0#
0&
0%
0!
01
09
08
06
07
1*
#487500
1!
16
17
0*
1A
0?
14
05
1(
0'
#495000
0!
06
07
1*
#500000
1&
1%
19
18
0*
#502500
1!
16
17
1*
#510000
0!
06
07
0*
#517500
1!
16
17
1*
#520000
1"
12
0*
1B
0@
0C
#525000
0!
06
07
1*
#532500
1!
16
17
0*
0D
0A
04
0(
#540000
0%
0!
08
06
07
1*
1E
0B
1C
#547500
1!
16
17
0*
1D
1F
13
1)
#555000
0!
06
07
1*
#560000
0&
1%
09
18
0*
#562500
1!
16
17
1*
#570000
0!
06
07
0*
#577500
1!
16
17
1*
#580000
1#
0"
1&
11
02
19
0*
0E
1:
#585000
0!
06
07
1*
#592500
1!
16
17
0*
1=
0F
1>
0:
03
0)
#600000
0%
0#
1"
0&
0!
08
01
12
09
06
07
1*
#607500
1!
16
17
0*
0=
1?
0>
1@
15
1'
#615000
0!
06
07
1*
#620000
1#
11
0*
#622500
1!
16
17
1*
1A
0?
1B
0@
14
05
1(
0'
0C
#630000
0!
06
07
0*
#637500
1!
16
17
1*
0D
0A
1E
0B
04
0(
1C
#640000
1%
0"
18
02
0*
0E
1B
0C
#645000
0!
06
07
1*
#652500
1!
16
17
0*
#660000
0#
0%
1"
0!
01
08
12
06
07
1*
1E
0B
1C
#667500
1!
16
17
0*
1D
1F
13
1)
#675000
0!
06
07
1*
#680000
1&
1%
19
18
0*
#682500
1!
16
17
1*
#690000
0!
06
07
0*
#697500
1!
16
17
1*
#700000
0"
02
0*
#705000
0!
06
07
1*
#712500
1!
16
17
0*
#720000
0!
06
07
1*
#727500
1!
16
17
0*
#735000
0!
06
07
1*
#740000
0&
09
0*
#742500
1!
16
17
1*
#750000
0!
06
07
0*
#757500
1!
16
17
1*
#760000
1#
1"
11
12
0*
0E
0C
#765000
0!
06
07
1*
#772500
1!
16
17
0*
0D
0F
1B
1C
03
0)
0C
#780000
0%
1&
0"
0!
08
19
02
06
07
1*
1E
0B
1C
#787500
1!
16
17
0*
1D
1F
0E
1:
13
1)
#795000
0!
06
07
1*
#800000
0&
09
0*
0C
0:
#802500
1!
16
17
1*
0D
0F
1E
1C
03
0)
#810000
0!
06
07
0*
#817500
1!
16
17
1*
1D
1F
0E
0C
13
1)
#820000
1%
1"
18
12
0*
#825000
0!
06
07
1*
#832500
1!
16
17
0*
0D
0F
1B
1C
03
0)
0C
#840000
0%
0"
0!
08
02
06
07
1*
1E
0B
1C
#847500
1!
16
17
0*
1D
1F
0E
0C
13
1)
#855000
0!
06
07
1*
#860000
0#
1"
01
12
0*
1E
1C
#862500
1!
16
17
1*
#870000
0!
06
07
0*
#877500
1!
16
17
1*
#880000
1%
1#
18
11
0*
0E
0C
#885000
0!
06
07
1*
#892500
1!
16
17
0*
0D
0F
1B
1C
03
0)
0C
#900000
1&
0"
0%
0#
0!
19
02
08
01
06
07
1*
0B
1E
1C
#907500
1!
16
17
0*
1D
1F
13
1)
#915000
0!
06
07
1*
#920000
0&
1#
09
11
0*
0C
0E
#922500
1!
16
17
1*
0D
0F
1E
1C
03
0)
#930000
0!
06
07
0*
#937500
1!
16
17
1*
1D
1F
0E
0C
13
1)
#940000
1%
1&
0#
18
19
01
0*
1E
1C
#945000
0!
06
07
1*
#952500
1!
16
17
0*
#960000
0%
1#
0!
08
11
06
07
1*
0E
1:
#967500
1!
16
17
0*
1=
0F
1>
0:
03
0)
#975000
0!
06
07
1*
#980000
0&
1%
0#
09
18
01
0*
#982500
1!
16
17
1*
0=
1?
0>
1@
15
1'
#990000
0!
06
07
0*
#997500
1!
16
17
1*
1A
0?
14
05
1(
0'
