Parte_C/simulation/qsim/multi2consigno.msim.vcd
$comment
	File created using the following command:
		vcd file multi2consigno.msim.vcd -direction
$end
$date
	Thu Oct 30 14:45:34 2025
$end
$version
	ModelSim Version 10.1d
$end
$timescale
	1ps
$end
$scope module multi2consigno_vlg_vec_tst $end
$var reg 1 ! a0 $end
$var reg 1 " a1 $end
$var reg 1 # b0 $end
$var reg 1 $ b1 $end
$var reg 1 % Cin $end
$var reg 1 & CLK $end
$var reg 1 ' CLRN $end
$var reg 1 ( PRN $end
$var wire 1 ) Out0 $end
$var wire 1 * Out1 $end
$var wire 1 + Out2 $end
$var wire 1 , Out3 $end
$var wire 1 - sampler $end
$scope module i1 $end
$var wire 1 . gnd $end
$var wire 1 / vcc $end
$var wire 1 0 unknown $end
$var tri1 1 1 devclrn $end
$var tri1 1 2 devpor $end
$var tri1 1 3 devoe $end
$var wire 1 4 CLK~input_o $end
$var wire 1 5 CLK~inputclkctrl_outclk $end
$var wire 1 6 Out0~output_o $end
$var wire 1 7 Out1~output_o $end
$var wire 1 8 Out3~output_o $end
$var wire 1 9 Out2~output_o $end
$var wire 1 : PRN~input_o $end
$var wire 1 ; a0~input_o $end
$var wire 1 < inst~1_combout $end
$var wire 1 = CLRN~input_o $end
$var wire 1 > inst12~0_combout $end
$var wire 1 ? inst12~0clkctrl_outclk $end
$var wire 1 @ inst~_emulated_q $end
$var wire 1 A inst~0_combout $end
$var wire 1 B b0~input_o $end
$var wire 1 C inst9~1_combout $end
$var wire 1 D inst9~_emulated_q $end
$var wire 1 E inst9~0_combout $end
$var wire 1 F inst12~3_combout $end
$var wire 1 G inst12~_emulated_q $end
$var wire 1 H inst12~1_combout $end
$var wire 1 I inst12~2_combout $end
$var wire 1 J Cin~input_o $end
$var wire 1 K a1~input_o $end
$var wire 1 L inst11~1_combout $end
$var wire 1 M inst11~_emulated_q $end
$var wire 1 N inst11~0_combout $end
$var wire 1 O inst6~combout $end
$var wire 1 P b1~input_o $end
$var wire 1 Q inst10~1_combout $end
$var wire 1 R inst10~_emulated_q $end
$var wire 1 S inst10~0_combout $end
$var wire 1 T inst19~combout $end
$var wire 1 U inst13~1_combout $end
$var wire 1 V inst13~_emulated_q $end
$var wire 1 W inst13~0_combout $end
$var wire 1 X inst20~combout $end
$var wire 1 Y inst15~2_combout $end
$var wire 1 Z inst15~1_combout $end
$var wire 1 [ inst15~_emulated_q $end
$var wire 1 \ inst15~0_combout $end
$var wire 1 ] inst2|Cout~0_combout $end
$var wire 1 ^ inst14~1_combout $end
$var wire 1 _ inst14~_emulated_q $end
$var wire 1 ` inst14~0_combout $end
$upscope $end
$upscope $end
$enddefinitions $end
#0
$dumpvars
0!
1"
0#
1$
0%
0&
0'
0(
0)
0*
0+
0,
x-
0.
1/
x0
11
12
13
04
05
06
07
08
09
0:
0;
0<
0=
1>
1?
0@
0A
0B
0C
0D
0E
0F
0G
0H
0I
0J
1K
1L
0M
0N
0O
1P
1Q
0R
0S
0T
0U
0V
0W
0X
1Y
1Z
0[
0\
0]
0^
0_
0`
$end
#50
1&
14
15
0-
#100
0&
04
05
1-
#150
1&
14
15
0-
#200
0&
04
05
1-
#250
1&
14
15
0-
#300
0&
04
05
1-
#350
1&
14
15
0-
#400
0&
04
05
1-
#450
1&
14
15
0-
#500
0&
04
05
1-
#550
1&
14
15
0-
#600
0&
04
05
1-
#650
1&
14
15
0-
#700
0&
04
05
1-
#750
1&
14
15
0-
#800
0&
04
05
1-
#850
1&
14
15
0-
#900
0&
04
05
1-
#950
1&
14
15
0-
#1000
0&
04
05
1-
#1050
1&
14
15
0-
#1100
0&
04
05
1-
#1150
1&
14
15
0-
#1200
0&
04
05
1-
#1250
1&
14
15
0-
#1300
0&
04
05
1-
#1350
1&
14
15
0-
#1400
0&
04
05
1-
#1450
1&
14
15
0-
#1500
0&
04
05
1-
#1550
1&
14
15
0-
#1600
0&
04
05
1-
#1650
1&
14
15
0-
#1700
0&
04
05
1-
#1750
1&
14
15
0-
#1800
0&
04
05
1-
#1850
1&
14
15
0-
#1900
0&
04
05
1-
#1950
1&
14
15
0-
#2000
0&
04
05
1-
#2050
1&
14
15
0-
#2100
0&
04
05
1-
#2150
1&
14
15
0-
#2200
0&
04
05
1-
#2250
1&
14
15
0-
#2300
0&
04
05
1-
#2350
1&
14
15
0-
#2400
0&
04
05
1-
#2450
1&
14
15
0-
#2500
0&
04
05
1-
#2550
1&
14
15
0-
#2600
0&
04
05
1-
#2650
1&
14
15
0-
#2700
0&
04
05
1-
#2750
1&
14
15
0-
#2800
0&
04
05
1-
#2850
1&
14
15
0-
#2900
0&
04
05
1-
#2950
1&
14
15
0-
#3000
0&
04
05
1-
#3050
1&
14
15
0-
#3100
0&
04
05
1-
#3150
1&
14
15
0-
#3200
0&
04
05
1-
#3250
1&
14
15
0-
#3300
0&
04
05
1-
#3350
1&
14
15
0-
#3400
0&
04
05
1-
#3450
1&
14
15
0-
#3500
0&
04
05
1-
#3550
1&
14
15
0-
#3600
0&
04
05
1-
#3650
1&
14
15
0-
#3700
0&
04
05
1-
#3750
1&
14
15
0-
#3800
0&
04
05
1-
#3850
1&
14
15
0-
#3900
0&
04
05
1-
#3950
1&
14
15
0-
#4000
0&
04
05
1-
#4050
1&
14
15
0-
#4100
0&
04
05
1-
#4150
1&
14
15
0-
#4200
0&
04
05
1-
#4250
1&
14
15
0-
#4300
0&
04
05
1-
#4350
1&
14
15
0-
#4400
0&
04
05
1-
#4450
1&
14
15
0-
#4500
0&
04
05
1-
#4550
1&
14
15
0-
#4600
0&
04
05
1-
#4650
1&
14
15
0-
#4700
0&
04
05
1-
#4750
1&
14
15
0-
#4800
0&
04
05
1-
#4850
1&
14
15
0-
#4900
0&
04
05
1-
#4950
1&
14
15
0-
#5000
0&
04
05
1-
#5050
1&
14
15
0-
#5100
0&
04
05
1-
#5150
1&
14
15
0-
#5200
0&
04
05
1-
#5250
1&
14
15
0-
#5300
0&
04
05
1-
#5350
1&
14
15
0-
#5400
0&
04
05
1-
#5450
1&
14
15
0-
#5500
0&
04
05
1-
#5550
1&
14
15
0-
#5600
0&
04
05
1-
#5650
1&
14
15
0-
#5700
0&
04
05
1-
#5750
1&
14
15
0-
#5800
0&
04
05
1-
#5850
1&
14
15
0-
#5900
0&
04
05
1-
#5950
1&
14
15
0-
#6000
0&
04
05
1-
#6050
1&
14
15
0-
#6100
0&
04
05
1-
#6150
1&
14
15
0-
#6200
0&
04
05
1-
#6250
1&
14
15
0-
#6300
0&
04
05
1-
#6350
1&
14
15
0-
#6400
0&
04
05
1-
#6450
1&
14
15
0-
#6500
0&
04
05
1-
#6550
1&
14
15
0-
#6600
0&
04
05
1-
#6650
1&
14
15
0-
#6700
0&
04
05
1-
#6750
1&
14
15
0-
#6800
0&
04
05
1-
#6850
1&
14
15
0-
#6900
0&
04
05
1-
#6950
1&
14
15
0-
#7000
0&
04
05
1-
#7050
1&
14
15
0-
#7100
0&
04
05
1-
#7150
1&
14
15
0-
#7200
0&
04
05
1-
#7250
1&
14
15
0-
#7300
0&
04
05
1-
#7350
1&
14
15
0-
#7400
0&
04
05
1-
#7450
1&
14
15
0-
#7500
0&
04
05
1-
#7550
1&
14
15
0-
#7600
0&
04
05
1-
#7650
1&
14
15
0-
#7700
0&
04
05
1-
#7750
1&
14
15
0-
#7800
0&
04
05
1-
#7850
1&
14
15
0-
#7900
0&
04
05
1-
#7950
1&
14
15
0-
#8000
0&
04
05
1-
#8050
1&
14
15
0-
#8100
0&
04
05
1-
#8150
1&
14
15
0-
#8200
0&
04
05
1-
#8250
1&
14
15
0-
#8300
0&
04
05
1-
#8350
1&
14
15
0-
#8400
0&
04
05
1-
#8450
1&
14
15
0-
#8500
0&
04
05
1-
#8550
1&
14
15
0-
#8600
0&
04
05
1-
#8650
1&
14
15
0-
#8700
0&
04
05
1-
#8750
1&
14
15
0-
#8800
0&
04
05
1-
#8850
1&
14
15
0-
#8900
0&
04
05
1-
#8950
1&
14
15
0-
#9000
0&
04
05
1-
#9050
1&
14
15
0-
#9100
0&
04
05
1-
#9150
1&
14
15
0-
#9200
0&
04
05
1-
#9250
1&
14
15
0-
#9300
0&
04
05
1-
#9350
1&
14
15
0-
#9400
0&
04
05
1-
#9450
1&
14
15
0-
#9500
0&
04
05
1-
#9550
1&
14
15
0-
#9600
0&
04
05
1-
#9650
1&
14
15
0-
#9700
0&
04
05
1-
#9750
1&
14
15
0-
#9800
0&
04
05
1-
#9850
1&
14
15
0-
#9900
0&
04
05
1-
#9950
1&
14
15
0-
#10000
0&
04
05
1-
#10050
1&
14
15
0-
#10100
0&
04
05
1-
#10150
1&
14
15
0-
#10200
0&
04
05
1-
#10250
1&
14
15
0-
#10300
0&
04
05
1-
#10350
1&
14
15
0-
#10400
0&
04
05
1-
#10450
1&
14
15
0-
#10500
0&
04
05
1-
#10550
1&
14
15
0-
#10600
0&
04
05
1-
#10650
1&
14
15
0-
#10700
0&
04
05
1-
#10750
1&
14
15
0-
#10800
0&
04
05
1-
#10850
1&
14
15
0-
#10900
0&
04
05
1-
#10950
1&
14
15
0-
#11000
0&
04
05
1-
#11050
1&
14
15
0-
#11100
0&
04
05
1-
#11150
1&
14
15
0-
#11200
0&
04
05
1-
#11250
1&
14
15
0-
#11300
0&
04
05
1-
#11350
1&
14
15
0-
#11400
0&
04
05
1-
#11450
1&
14
15
0-
#11500
0&
04
05
1-
#11550
1&
14
15
0-
#11600
0&
04
05
1-
#11650
1&
14
15
0-
#11700
0&
04
05
1-
#11750
1&
14
15
0-
#11800
0&
04
05
1-
#11850
1&
14
15
0-
#11900
0&
04
05
1-
#11950
1&
14
15
0-
#12000
0&
04
05
1-
#12050
1&
14
15
0-
#12100
0&
04
05
1-
#12150
1&
14
15
0-
#12200
0&
04
05
1-
#12250
1&
14
15
0-
#12300
0&
04
05
1-
#12350
1&
14
15
0-
#12400
0&
04
05
1-
#12450
1&
14
15
0-
#12500
0&
04
05
1-
#12550
1&
14
15
0-
#12600
0&
04
05
1-
#12650
1&
14
15
0-
#12700
0&
04
05
1-
#12750
1&
14
15
0-
#12800
0&
04
05
1-
#12850
1&
14
15
0-
#12900
0&
04
05
1-
#12950
1&
14
15
0-
#13000
0&
04
05
1-
#13050
1&
14
15
0-
#13100
0&
04
05
1-
#13150
1&
14
15
0-
#13200
0&
04
05
1-
#13250
1&
14
15
0-
#13300
0&
04
05
1-
#13350
1&
14
15
0-
#13400
0&
04
05
1-
#13450
1&
14
15
0-
#13500
0&
04
05
1-
#13550
1&
14
15
0-
#13600
0&
04
05
1-
#13650
1&
14
15
0-
#13700
0&
04
05
1-
#13750
1&
14
15
0-
#13800
0&
04
05
1-
#13850
1&
14
15
0-
#13900
0&
04
05
1-
#13950
1&
14
15
0-
#14000
0&
04
05
1-
#14050
1&
14
15
0-
#14100
0&
04
05
1-
#14150
1&
14
15
0-
#14200
0&
04
05
1-
#14250
1&
14
15
0-
#14300
0&
04
05
1-
#14350
1&
14
15
0-
#14400
0&
04
05
1-
#14450
1&
14
15
0-
#14500
0&
04
05
1-
#14550
1&
14
15
0-
#14600
0&
04
05
1-
#14650
1&
14
15
0-
#14700
0&
04
05
1-
#14750
1&
14
15
0-
#14800
0&
04
05
1-
#14850
1&
14
15
0-
#14900
0&
04
05
1-
#14950
1&
14
15
0-
#15000
0&
04
05
1-
#15050
1&
14
15
0-
#15100
0&
04
05
1-
#15150
1&
14
15
0-
#15200
0&
04
05
1-
#15250
1&
14
15
0-
#15300
0&
04
05
1-
#15350
1&
14
15
0-
#15400
0&
04
05
1-
#15450
1&
14
15
0-
#15500
0&
04
05
1-
#15550
1&
14
15
0-
#15600
0&
04
05
1-
#15650
1&
14
15
0-
#15700
0&
04
05
1-
#15750
1&
14
15
0-
#15800
0&
04
05
1-
#15850
1&
14
15
0-
#15900
0&
04
05
1-
#15950
1&
14
15
0-
#16000
0&
04
05
1-
#16050
1&
14
15
0-
#16100
0&
04
05
1-
#16150
1&
14
15
0-
#16200
0&
04
05
1-
#16250
1&
14
15
0-
#16300
0&
04
05
1-
#16350
1&
14
15
0-
#16400
0&
04
05
1-
#16450
1&
14
15
0-
#16500
0&
04
05
1-
#16550
1&
14
15
0-
#16600
0&
04
05
1-
#16650
1&
14
15
0-
#16700
0&
04
05
1-
#16750
1&
14
15
0-
#16800
0&
04
05
1-
#16850
1&
14
15
0-
#16900
0&
04
05
1-
#16950
1&
14
15
0-
#17000
0&
04
05
1-
#17050
1&
14
15
0-
#17100
0&
04
05
1-
#17150
1&
14
15
0-
#17200
0&
04
05
1-
#17250
1&
14
15
0-
#17300
0&
04
05
1-
#17350
1&
14
15
0-
#17400
0&
04
05
1-
#17450
1&
14
15
0-
#17500
0&
04
05
1-
#17550
1&
14
15
0-
#17600
0&
04
05
1-
#17650
1&
14
15
0-
#17700
0&
04
05
1-
#17750
1&
14
15
0-
#17800
0&
04
05
1-
#17850
1&
14
15
0-
#17900
0&
04
05
1-
#17950
1&
14
15
0-
#18000
0&
04
05
1-
#18050
1&
14
15
0-
#18100
0&
04
05
1-
#18150
1&
14
15
0-
#18200
0&
04
05
1-
#18250
1&
14
15
0-
#18300
0&
04
05
1-
#18350
1&
14
15
0-
#18400
0&
04
05
1-
#18450
1&
14
15
0-
#18500
0&
04
05
1-
#18550
1&
14
15
0-
#18600
0&
04
05
1-
#18650
1&
14
15
0-
#18700
0&
04
05
1-
#18750
1&
14
15
0-
#18800
0&
04
05
1-
#18850
1&
14
15
0-
#18900
0&
04
05
1-
#18950
1&
14
15
0-
#19000
0&
04
05
1-
#19050
1&
14
15
0-
#19100
0&
04
05
1-
#19150
1&
14
15
0-
#19200
0&
04
05
1-
#19250
1&
14
15
0-
#19300
0&
04
05
1-
#19350
1&
14
15
0-
#19400
0&
04
05
1-
#19450
1&
14
15
0-
#19500
0&
04
05
1-
#19550
1&
14
15
0-
#19600
0&
04
05
1-
#19650
1&
14
15
0-
#19700
0&
04
05
1-
#19750
1&
14
15
0-
#19800
0&
04
05
1-
#19850
1&
14
15
0-
#19900
0&
04
05
1-
#19950
1&
14
15
0-
#20000
1'
1(
0&
1=
1:
04
05
1-
0>
0?
#20050
1&
14
15
0-
1[
1R
1M
1S
1N
1\
1X
0Z
18
1,
1^
#20100
0&
04
05
1-
#20150
1&
14
15
0-
1_
0[
1`
0\
19
08
1+
0,
#20200
0&
04
05
1-
#20250
1&
14
15
0-
#20300
0&
04
05
1-
#20350
1&
14
15
0-
#20400
0&
04
05
1-
#20450
1&
14
15
0-
#20500
0&
04
05
1-
#20550
1&
14
15
0-
#20600
0&
04
05
1-
#20650
1&
14
15
0-
#20700
0&
04
05
1-
#20750
1&
14
15
0-
#20800
0&
04
05
1-
#20850
1&
14
15
0-
#20900
0&
04
05
1-
#20950
1&
14
15
0-
#21000
0&
04
05
1-
#21050
1&
14
15
0-
#21100
0&
04
05
1-
#21150
1&
14
15
0-
#21200
0&
04
05
1-
#21250
1&
14
15
0-
#21300
0&
04
05
1-
#21350
1&
14
15
0-
#21400
0&
04
05
1-
#21450
1&
14
15
0-
#21500
0&
04
05
1-
#21550
1&
14
15
0-
#21600
0&
04
05
1-
#21650
1&
14
15
0-
#21700
0&
04
05
1-
#21750
1&
14
15
0-
#21800
0&
04
05
1-
#21850
1&
14
15
0-
#21900
0&
04
05
1-
#21950
1&
14
15
0-
#22000
0&
04
05
1-
#22050
1&
14
15
0-
#22100
0&
04
05
1-
#22150
1&
14
15
0-
#22200
0&
04
05
1-
#22250
1&
14
15
0-
#22300
0&
04
05
1-
#22350
1&
14
15
0-
#22400
0&
04
05
1-
#22450
1&
14
15
0-
#22500
0&
04
05
1-
#22550
1&
14
15
0-
#22600
0&
04
05
1-
#22650
1&
14
15
0-
#22700
0&
04
05
1-
#22750
1&
14
15
0-
#22800
0&
04
05
1-
#22850
1&
14
15
0-
#22900
0&
04
05
1-
#22950
1&
14
15
0-
#23000
0&
04
05
1-
#23050
1&
14
15
0-
#23100
0&
04
05
1-
#23150
1&
14
15
0-
#23200
0&
04
05
1-
#23250
1&
14
15
0-
#23300
0&
04
05
1-
#23350
1&
14
15
0-
#23400
0&
04
05
1-
#23450
1&
14
15
0-
#23500
0&
04
05
1-
#23550
1&
14
15
0-
#23600
0&
04
05
1-
#23650
1&
14
15
0-
#23700
0&
04
05
1-
#23750
1&
14
15
0-
#23800
0&
04
05
1-
#23850
1&
14
15
0-
#23900
0&
04
05
1-
#23950
1&
14
15
0-
#24000
0&
04
05
1-
#24050
1&
14
15
0-
#24100
0&
04
05
1-
#24150
1&
14
15
0-
#24200
0&
04
05
1-
#24250
1&
14
15
0-
#24300
0&
04
05
1-
#24350
1&
14
15
0-
#24400
0&
04
05
1-
#24450
1&
14
15
0-
#24500
0&
04
05
1-
#24550
1&
14
15
0-
#24600
0&
04
05
1-
#24650
1&
14
15
0-
#24700
0&
04
05
1-
#24750
1&
14
15
0-
#24800
0&
04
05
1-
#24850
1&
14
15
0-
#24900
0&
04
05
1-
#24950
1&
14
15
0-
#25000
0&
04
05
1-
#25050
1&
14
15
0-
#25100
0&
04
05
1-
#25150
1&
14
15
0-
#25200
0&
04
05
1-
#25250
1&
14
15
0-
#25300
0&
04
05
1-
#25350
1&
14
15
0-
#25400
0&
04
05
1-
#25450
1&
14
15
0-
#25500
0&
04
05
1-
#25550
1&
14
15
0-
#25600
0&
04
05
1-
#25650
1&
14
15
0-
#25700
0&
04
05
1-
#25750
1&
14
15
0-
#25800
0&
04
05
1-
#25850
1&
14
15
0-
#25900
0&
04
05
1-
#25950
1&
14
15
0-
#26000
0&
04
05
1-
#26050
1&
14
15
0-
#26100
0&
04
05
1-
#26150
1&
14
15
0-
#26200
0&
04
05
1-
#26250
1&
14
15
0-
#26300
0&
04
05
1-
#26350
1&
14
15
0-
#26400
0&
04
05
1-
#26450
1&
14
15
0-
#26500
0&
04
05
1-
#26550
1&
14
15
0-
#26600
0&
04
05
1-
#26650
1&
14
15
0-
#26700
0&
04
05
1-
#26750
1&
14
15
0-
#26800
0&
04
05
1-
#26850
1&
14
15
0-
#26900
0&
04
05
1-
#26950
1&
14
15
0-
#27000
0&
04
05
1-
#27050
1&
14
15
0-
#27100
0&
04
05
1-
#27150
1&
14
15
0-
#27200
0&
04
05
1-
#27250
1&
14
15
0-
#27300
0&
04
05
1-
#27350
1&
14
15
0-
#27400
0&
04
05
1-
#27450
1&
14
15
0-
#27500
0&
04
05
1-
#27550
1&
14
15
0-
#27600
0&
04
05
1-
#27650
1&
14
15
0-
#27700
0&
04
05
1-
#27750
1&
14
15
0-
#27800
0&
04
05
1-
#27850
1&
14
15
0-
#27900
0&
04
05
1-
#27950
1&
14
15
0-
#28000
0&
04
05
1-
#28050
1&
14
15
0-
#28100
0&
04
05
1-
#28150
1&
14
15
0-
#28200
0&
04
05
1-
#28250
1&
14
15
0-
#28300
0&
04
05
1-
#28350
1&
14
15
0-
#28400
0&
04
05
1-
#28450
1&
14
15
0-
#28500
0&
04
05
1-
#28550
1&
14
15
0-
#28600
0&
04
05
1-
#28650
1&
14
15
0-
#28700
0&
04
05
1-
#28750
1&
14
15
0-
#28800
0&
04
05
1-
#28850
1&
14
15
0-
#28900
0&
04
05
1-
#28950
1&
14
15
0-
#29000
0&
04
05
1-
#29050
1&
14
15
0-
#29100
0&
04
05
1-
#29150
1&
14
15
0-
#29200
0&
04
05
1-
#29250
1&
14
15
0-
#29300
0&
04
05
1-
#29350
1&
14
15
0-
#29400
0&
04
05
1-
#29450
1&
14
15
0-
#29500
0&
04
05
1-
#29550
1&
14
15
0-
#29600
0&
04
05
1-
#29650
1&
14
15
0-
#29700
0&
04
05
1-
#29750
1&
14
15
0-
#29800
0&
04
05
1-
#29850
1&
14
15
0-
#29900
0&
04
05
1-
#29950
1&
14
15
0-
#30000
0&
04
05
1-
#30050
1&
14
15
0-
#30100
0&
04
05
1-
#30150
1&
14
15
0-
#30200
0&
04
05
1-
#30250
1&
14
15
0-
#30300
0&
04
05
1-
#30350
1&
14
15
0-
#30400
0&
04
05
1-
#30450
1&
14
15
0-
#30500
0&
04
05
1-
#30550
1&
14
15
0-
#30600
0&
04
05
1-
#30650
1&
14
15
0-
#30700
0&
04
05
1-
#30750
1&
14
15
0-
#30800
0&
04
05
1-
#30850
1&
14
15
0-
#30900
0&
04
05
1-
#30950
1&
14
15
0-
#31000
0&
04
05
1-
#31050
1&
14
15
0-
#31100
0&
04
05
1-
#31150
1&
14
15
0-
#31200
0&
04
05
1-
#31250
1&
14
15
0-
#31300
0&
04
05
1-
#31350
1&
14
15
0-
#31400
0&
04
05
1-
#31450
1&
14
15
0-
#31500
0&
04
05
1-
#31550
1&
14
15
0-
#31600
0&
04
05
1-
#31650
1&
14
15
0-
#31700
0&
04
05
1-
#31750
1&
14
15
0-
#31800
0&
04
05
1-
#31850
1&
14
15
0-
#31900
0&
04
05
1-
#31950
1&
14
15
0-
#32000
0&
04
05
1-
#32050
1&
14
15
0-
#32100
0&
04
05
1-
#32150
1&
14
15
0-
#32200
0&
04
05
1-
#32250
1&
14
15
0-
#32300
0&
04
05
1-
#32350
1&
14
15
0-
#32400
0&
04
05
1-
#32450
1&
14
15
0-
#32500
0&
04
05
1-
#32550
1&
14
15
0-
#32600
0&
04
05
1-
#32650
1&
14
15
0-
#32700
0&
04
05
1-
#32750
1&
14
15
0-
#32800
0&
04
05
1-
#32850
1&
14
15
0-
#32900
0&
04
05
1-
#32950
1&
14
15
0-
#33000
0&
04
05
1-
#33050
1&
14
15
0-
#33100
0&
04
05
1-
#33150
1&
14
15
0-
#33200
0&
04
05
1-
#33250
1&
14
15
0-
#33300
0&
04
05
1-
#33350
1&
14
15
0-
#33400
0&
04
05
1-
#33450
1&
14
15
0-
#33500
0&
04
05
1-
#33550
1&
14
15
0-
#33600
0&
04
05
1-
#33650
1&
14
15
0-
#33700
0&
04
05
1-
#33750
1&
14
15
0-
#33800
0&
04
05
1-
#33850
1&
14
15
0-
#33900
0&
04
05
1-
#33950
1&
14
15
0-
#34000
0&
04
05
1-
#34050
1&
14
15
0-
#34100
0&
04
05
1-
#34150
1&
14
15
0-
#34200
0&
04
05
1-
#34250
1&
14
15
0-
#34300
0&
04
05
1-
#34350
1&
14
15
0-
#34400
0&
04
05
1-
#34450
1&
14
15
0-
#34500
0&
04
05
1-
#34550
1&
14
15
0-
#34600
0&
04
05
1-
#34650
1&
14
15
0-
#34700
0&
04
05
1-
#34750
1&
14
15
0-
#34800
0&
04
05
1-
#34850
1&
14
15
0-
#34900
0&
04
05
1-
#34950
1&
14
15
0-
#35000
0&
04
05
1-
#35050
1&
14
15
0-
#35100
0&
04
05
1-
#35150
1&
14
15
0-
#35200
0&
04
05
1-
#35250
1&
14
15
0-
#35300
0&
04
05
1-
#35350
1&
14
15
0-
#35400
0&
04
05
1-
#35450
1&
14
15
0-
#35500
0&
04
05
1-
#35550
1&
14
15
0-
#35600
0&
04
05
1-
#35650
1&
14
15
0-
#35700
0&
04
05
1-
#35750
1&
14
15
0-
#35800
0&
04
05
1-
#35850
1&
14
15
0-
#35900
0&
04
05
1-
#35950
1&
14
15
0-
#36000
0&
04
05
1-
#36050
1&
14
15
0-
#36100
0&
04
05
1-
#36150
1&
14
15
0-
#36200
0&
04
05
1-
#36250
1&
14
15
0-
#36300
0&
04
05
1-
#36350
1&
14
15
0-
#36400
0&
04
05
1-
#36450
1&
14
15
0-
#36500
0&
04
05
1-
#36550
1&
14
15
0-
#36600
0&
04
05
1-
#36650
1&
14
15
0-
#36700
0&
04
05
1-
#36750
1&
14
15
0-
#36800
0&
04
05
1-
#36850
1&
14
15
0-
#36900
0&
04
05
1-
#36950
1&
14
15
0-
#37000
0&
04
05
1-
#37050
1&
14
15
0-
#37100
0&
04
05
1-
#37150
1&
14
15
0-
#37200
0&
04
05
1-
#37250
1&
14
15
0-
#37300
0&
04
05
1-
#37350
1&
14
15
0-
#37400
0&
04
05
1-
#37450
1&
14
15
0-
#37500
0&
04
05
1-
#37550
1&
14
15
0-
#37600
0&
04
05
1-
#37650
1&
14
15
0-
#37700
0&
04
05
1-
#37750
1&
14
15
0-
#37800
0&
04
05
1-
#37850
1&
14
15
0-
#37900
0&
04
05
1-
#37950
1&
14
15
0-
#38000
0&
04
05
1-
#38050
1&
14
15
0-
#38100
0&
04
05
1-
#38150
1&
14
15
0-
#38200
0&
04
05
1-
#38250
1&
14
15
0-
#38300
0&
04
05
1-
#38350
1&
14
15
0-
#38400
0&
04
05
1-
#38450
1&
14
15
0-
#38500
0&
04
05
1-
#38550
1&
14
15
0-
#38600
0&
04
05
1-
#38650
1&
14
15
0-
#38700
0&
04
05
1-
#38750
1&
14
15
0-
#38800
0&
04
05
1-
#38850
1&
14
15
0-
#38900
0&
04
05
1-
#38950
1&
14
15
0-
#39000
0&
04
05
1-
#39050
1&
14
15
0-
#39100
0&
04
05
1-
#39150
1&
14
15
0-
#39200
0&
04
05
1-
#39250
1&
14
15
0-
#39300
0&
04
05
1-
#39350
1&
14
15
0-
#39400
0&
04
05
1-
#39450
1&
14
15
0-
#39500
0&
04
05
1-
#39550
1&
14
15
0-
#39600
0&
04
05
1-
#39650
1&
14
15
0-
#39700
0&
04
05
1-
#39750
1&
14
15
0-
#39800
0&
04
05
1-
#39850
1&
14
15
0-
#39900
0&
04
05
1-
#39950
1&
14
15
0-
#40000
0&
04
05
1-
#40050
1&
14
15
0-
#40100
0&
04
05
1-
#40150
1&
14
15
0-
#40200
0&
04
05
1-
#40250
1&
14
15
0-
#40300
0&
04
05
1-
#40350
1&
14
15
0-
#40400
0&
04
05
1-
#40450
1&
14
15
0-
#40500
0&
04
05
1-
#40550
1&
14
15
0-
#40600
0&
04
05
1-
#40650
1&
14
15
0-
#40700
0&
04
05
1-
#40750
1&
14
15
0-
#40800
0&
04
05
1-
#40850
1&
14
15
0-
#40900
0&
04
05
1-
#40950
1&
14
15
0-
#41000
0&
04
05
1-
#41050
1&
14
15
0-
#41100
0&
04
05
1-
#41150
1&
14
15
0-
#41200
0&
04
05
1-
#41250
1&
14
15
0-
#41300
0&
04
05
1-
#41350
1&
14
15
0-
#41400
0&
04
05
1-
#41450
1&
14
15
0-
#41500
0&
04
05
1-
#41550
1&
14
15
0-
#41600
0&
04
05
1-
#41650
1&
14
15
0-
#41700
0&
04
05
1-
#41750
1&
14
15
0-
#41800
0&
04
05
1-
#41850
1&
14
15
0-
#41900
0&
04
05
1-
#41950
1&
14
15
0-
#42000
0&
04
05
1-
#42050
1&
14
15
0-
#42100
0&
04
05
1-
#42150
1&
14
15
0-
#42200
0&
04
05
1-
#42250
1&
14
15
0-
#42300
0&
04
05
1-
#42350
1&
14
15
0-
#42400
0&
04
05
1-
#42450
1&
14
15
0-
#42500
0&
04
05
1-
#42550
1&
14
15
0-
#42600
0&
04
05
1-
#42650
1&
14
15
0-
#42700
0&
04
05
1-
#42750
1&
14
15
0-
#42800
0&
04
05
1-
#42850
1&
14
15
0-
#42900
0&
04
05
1-
#42950
1&
14
15
0-
#43000
0&
04
05
1-
#43050
1&
14
15
0-
#43100
0&
04
05
1-
#43150
1&
14
15
0-
#43200
0&
04
05
1-
#43250
1&
14
15
0-
#43300
0&
04
05
1-
#43350
1&
14
15
0-
#43400
0&
04
05
1-
#43450
1&
14
15
0-
#43500
0&
04
05
1-
#43550
1&
14
15
0-
#43600
0&
04
05
1-
#43650
1&
14
15
0-
#43700
0&
04
05
1-
#43750
1&
14
15
0-
#43800
0&
04
05
1-
#43850
1&
14
15
0-
#43900
0&
04
05
1-
#43950
1&
14
15
0-
#44000
0&
04
05
1-
#44050
1&
14
15
0-
#44100
0&
04
05
1-
#44150
1&
14
15
0-
#44200
0&
04
05
1-
#44250
1&
14
15
0-
#44300
0&
04
05
1-
#44350
1&
14
15
0-
#44400
0&
04
05
1-
#44450
1&
14
15
0-
#44500
0&
04
05
1-
#44550
1&
14
15
0-
#44600
0&
04
05
1-
#44650
1&
14
15
0-
#44700
0&
04
05
1-
#44750
1&
14
15
0-
#44800
0&
04
05
1-
#44850
1&
14
15
0-
#44900
0&
04
05
1-
#44950
1&
14
15
0-
#45000
0&
04
05
1-
#45050
1&
14
15
0-
#45100
0&
04
05
1-
#45150
1&
14
15
0-
#45200
0&
04
05
1-
#45250
1&
14
15
0-
#45300
0&
04
05
1-
#45350
1&
14
15
0-
#45400
0&
04
05
1-
#45450
1&
14
15
0-
#45500
0&
04
05
1-
#45550
1&
14
15
0-
#45600
0&
04
05
1-
#45650
1&
14
15
0-
#45700
0&
04
05
1-
#45750
1&
14
15
0-
#45800
0&
04
05
1-
#45850
1&
14
15
0-
#45900
0&
04
05
1-
#45950
1&
14
15
0-
#46000
0&
04
05
1-
#46050
1&
14
15
0-
#46100
0&
04
05
1-
#46150
1&
14
15
0-
#46200
0&
04
05
1-
#46250
1&
14
15
0-
#46300
0&
04
05
1-
#46350
1&
14
15
0-
#46400
0&
04
05
1-
#46450
1&
14
15
0-
#46500
0&
04
05
1-
#46550
1&
14
15
0-
#46600
0&
04
05
1-
#46650
1&
14
15
0-
#46700
0&
04
05
1-
#46750
1&
14
15
0-
#46800
0&
04
05
1-
#46850
1&
14
15
0-
#46900
0&
04
05
1-
#46950
1&
14
15
0-
#47000
0&
04
05
1-
#47050
1&
14
15
0-
#47100
0&
04
05
1-
#47150
1&
14
15
0-
#47200
0&
04
05
1-
#47250
1&
14
15
0-
#47300
0&
04
05
1-
#47350
1&
14
15
0-
#47400
0&
04
05
1-
#47450
1&
14
15
0-
#47500
0&
04
05
1-
#47550
1&
14
15
0-
#47600
0&
04
05
1-
#47650
1&
14
15
0-
#47700
0&
04
05
1-
#47750
1&
14
15
0-
#47800
0&
04
05
1-
#47850
1&
14
15
0-
