Parte_C/simulation/qsim/multi2consigno.msim.vcd
$comment
	File created using the following command:
		vcd file multi2consigno.msim.vcd -direction
$end
$date
	Mon Oct 27 21:36:10 2025
$end
$version
	ModelSim Version 10.1d
$end
$timescale
	1ps
$end
$scope module multi2consigno_vlg_vec_tst $end
$var reg 1 ! a0 $end
$var reg 1 " a1 $end
$var reg 1 # b0 $end
$var reg 1 $ b1 $end
$var reg 1 % Cin $end
$var reg 1 & CLK $end
$var reg 1 ' CLRN $end
$var reg 1 ( PRN $end
$var wire 1 ) Out0 $end
$var wire 1 * Out1 $end
$var wire 1 + Out2 $end
$var wire 1 , Out3 $end
$var wire 1 - sampler $end
$scope module i1 $end
$var wire 1 . gnd $end
$var wire 1 / vcc $end
$var wire 1 0 unknown $end
$var tri1 1 1 devclrn $end
$var tri1 1 2 devpor $end
$var tri1 1 3 devoe $end
$var wire 1 4 CLK~input_o $end
$var wire 1 5 CLK~inputclkctrl_outclk $end
$var wire 1 6 Out0~output_o $end
$var wire 1 7 Out1~output_o $end
$var wire 1 8 Out3~output_o $end
$var wire 1 9 Out2~output_o $end
$var wire 1 : PRN~input_o $end
$var wire 1 ; a0~input_o $end
$var wire 1 < inst~1_combout $end
$var wire 1 = CLRN~input_o $end
$var wire 1 > inst12~0_combout $end
$var wire 1 ? inst12~0clkctrl_outclk $end
$var wire 1 @ inst~_emulated_q $end
$var wire 1 A inst~0_combout $end
$var wire 1 B b0~input_o $end
$var wire 1 C inst9~1_combout $end
$var wire 1 D inst9~_emulated_q $end
$var wire 1 E inst9~0_combout $end
$var wire 1 F inst12~3_combout $end
$var wire 1 G inst12~_emulated_q $end
$var wire 1 H inst12~1_combout $end
$var wire 1 I inst12~2_combout $end
$var wire 1 J Cin~input_o $end
$var wire 1 K a1~input_o $end
$var wire 1 L inst11~1_combout $end
$var wire 1 M inst11~_emulated_q $end
$var wire 1 N inst11~0_combout $end
$var wire 1 O inst6~combout $end
$var wire 1 P b1~input_o $end
$var wire 1 Q inst10~1_combout $end
$var wire 1 R inst10~_emulated_q $end
$var wire 1 S inst10~0_combout $end
$var wire 1 T inst19~combout $end
$var wire 1 U inst13~1_combout $end
$var wire 1 V inst13~_emulated_q $end
$var wire 1 W inst13~0_combout $end
$var wire 1 X inst20~combout $end
$var wire 1 Y inst15~2_combout $end
$var wire 1 Z inst15~1_combout $end
$var wire 1 [ inst15~_emulated_q $end
$var wire 1 \ inst15~0_combout $end
$var wire 1 ] inst2|Cout~0_combout $end
$var wire 1 ^ inst14~1_combout $end
$var wire 1 _ inst14~_emulated_q $end
$var wire 1 ` inst14~0_combout $end
$upscope $end
$upscope $end
$enddefinitions $end
#0
$dumpvars
1!
0"
0#
1$
0%
0&
1'
0(
1)
1*
1+
1,
x-
0.
1/
x0
11
12
13
04
05
16
17
18
19
0:
1;
0<
1=
1>
1?
0@
1A
0B
1C
0D
1E
0F
0G
1H
1I
0J
0K
1L
0M
1N
1O
1P
0Q
0R
1S
1T
1U
0V
1W
0X
1Y
1Z
0[
1\
1]
1^
0_
1`
$end
#10000
1&
14
15
0-
#20000
1(
0&
1:
04
05
1-
0>
0?
#30000
1&
14
15
0-
1_
1[
1V
1M
1D
0N
0E
0`
0\
0W
0Z
1X
0O
1F
09
08
07
0+
0,
0*
0]
0U
0^
#40000
0&
04
05
1-
#50000
1&
14
15
0-
0_
0[
0V
1G
1`
1\
1W
0I
19
18
17
06
1+
1,
1*
0)
#60000
0&
04
05
1-
#70000
1&
14
15
0-
#80000
0&
04
05
1-
#90000
1&
14
15
0-
#100000
0&
04
05
1-
#110000
1&
14
15
0-
#120000
0&
04
05
1-
#130000
1&
14
15
0-
#140000
0&
04
05
1-
#150000
1&
14
15
0-
#160000
0&
04
05
1-
#170000
1&
14
15
0-
#180000
0&
04
05
1-
#190000
1&
14
15
0-
#200000
0&
04
05
1-
#210000
1&
14
15
0-
#220000
0&
04
05
1-
#230000
1&
14
15
0-
#240000
0&
04
05
1-
#250000
1&
14
15
0-
#260000
0&
04
05
1-
#270000
1&
14
15
0-
#280000
0&
04
05
1-
#290000
1&
14
15
0-
#300000
0&
04
05
1-
#310000
1&
14
15
0-
#320000
0&
04
05
1-
#330000
1&
14
15
0-
#340000
0&
04
05
1-
#350000
1&
14
15
0-
#360000
0&
04
05
1-
#370000
1&
14
15
0-
#380000
0&
04
05
1-
#390000
1&
14
15
0-
#400000
0&
04
05
1-
#410000
1&
14
15
0-
#420000
0&
04
05
1-
#430000
1&
14
15
0-
#440000
0&
04
05
1-
#450000
1&
14
15
0-
#460000
0&
04
05
1-
#470000
1&
14
15
0-
#480000
0&
04
05
1-
#490000
1&
14
15
0-
#500000
0&
04
05
1-
#510000
1&
14
15
0-
#520000
0&
04
05
1-
#530000
1&
14
15
0-
#540000
0&
04
05
1-
#550000
1&
14
15
0-
#560000
0&
04
05
1-
#570000
1&
14
15
0-
#580000
0&
04
05
1-
#590000
1&
14
15
0-
#600000
0&
04
05
1-
#610000
1&
14
15
0-
#620000
0&
04
05
1-
#630000
1&
14
15
0-
#640000
0&
04
05
1-
#650000
1&
14
15
0-
#660000
0&
04
05
1-
#670000
1&
14
15
0-
#680000
0&
04
05
1-
#690000
1&
14
15
0-
#700000
0&
04
05
1-
#710000
1&
14
15
0-
#720000
0&
04
05
1-
#730000
1&
14
15
0-
#740000
0&
04
05
1-
#750000
1&
14
15
0-
#760000
0&
04
05
1-
#770000
1&
14
15
0-
#780000
0&
04
05
1-
#790000
1&
14
15
0-
#800000
0&
04
05
1-
#810000
1&
14
15
0-
#820000
0&
04
05
1-
#830000
1&
14
15
0-
#840000
0&
04
05
1-
#850000
1&
14
15
0-
#860000
0&
04
05
1-
#870000
1&
14
15
0-
#880000
0&
04
05
1-
#890000
1&
14
15
0-
#900000
0&
04
05
1-
#910000
1&
14
15
0-
#920000
0&
04
05
1-
#930000
1&
14
15
0-
#940000
0&
04
05
1-
#950000
1&
14
15
0-
#960000
0&
04
05
1-
#970000
1&
14
15
0-
#980000
0&
04
05
1-
#990000
1&
14
15
0-
