Parte_E/simulation/qsim/maqestados.msim.vcd
$comment
	File created using the following command:
		vcd file maqestados.msim.vcd -direction
$end
$date
	Sun Oct 26 18:06:10 2025
$end
$version
	ModelSim Version 10.1d
$end
$timescale
	1ps
$end
$scope module maqestados_vlg_vec_tst $end
$var reg 1 ! clock $end
$var reg 1 " reset $end
$var reg 1 # x $end
$var wire 1 $ z0 $end
$var wire 1 % z1 $end
$var wire 1 & z2 $end
$var wire 1 ' z3 $end
$var wire 1 ( sampler $end
$scope module i1 $end
$var wire 1 ) gnd $end
$var wire 1 * vcc $end
$var wire 1 + unknown $end
$var tri1 1 , devclrn $end
$var tri1 1 - devpor $end
$var tri1 1 . devoe $end
$var wire 1 / x~input_o $end
$var wire 1 0 clock~input_o $end
$var wire 1 1 clock~inputclkctrl_outclk $end
$var wire 1 2 z0~output_o $end
$var wire 1 3 z1~output_o $end
$var wire 1 4 z2~output_o $end
$var wire 1 5 z3~output_o $end
$var wire 1 6 fstate.A~0_combout $end
$var wire 1 7 reset~input_o $end
$var wire 1 8 reset~inputclkctrl_outclk $end
$var wire 1 9 fstate.state_bit_0~q $end
$var wire 1 : fstate.state_bit_1~0_combout $end
$var wire 1 ; fstate.state_bit_1~q $end
$var wire 1 < fstate.state_bit_2~0_combout $end
$var wire 1 = fstate.state_bit_2~q $end
$var wire 1 > z0~0_combout $end
$var wire 1 ? WideOr3~0_combout $end
$var wire 1 @ z3~0_combout $end
$upscope $end
$upscope $end
$enddefinitions $end
#0
$dumpvars
0!
0"
0#
0$
0%
0&
0'
x(
0)
1*
x+
1,
1-
1.
0/
00
01
02
03
04
05
16
07
08
09
1:
0;
1<
0=
0>
1?
1@
$end
#5000
1!
10
11
0(
1=
19
1;
0?
0<
06
13
1%
14
1&
#10000
0!
00
01
1(
#15000
1!
10
11
0(
0=
09
0@
0:
16
1>
15
12
1'
1$
#20000
0!
00
01
1(
#25000
1!
10
11
0(
19
0;
1?
06
03
0%
04
0&
#30000
0!
00
01
1(
#35000
1!
10
11
0(
09
1@
1<
1:
16
0>
05
02
0'
0$
#40000
0!
00
01
1(
#45000
1!
10
11
0(
1=
19
1;
0?
0<
06
13
1%
14
1&
#50000
0!
00
01
1(
#55000
1!
10
11
0(
0=
09
0@
0:
16
1>
15
12
1'
1$
#60000
0!
00
01
1(
#65000
1!
10
11
0(
19
0;
1?
06
03
0%
04
0&
#70000
0!
00
01
1(
#75000
1!
10
11
0(
09
1@
1<
1:
16
0>
05
02
0'
0$
#80000
0!
00
01
1(
#85000
1!
10
11
0(
1=
19
1;
0?
0<
06
13
1%
14
1&
#90000
0!
00
01
1(
#95000
1!
10
11
0(
0=
09
0@
0:
16
1>
15
12
1'
1$
#100000
1#
0!
1/
00
01
1(
1:
#105000
1!
10
11
0(
19
0:
06
0>
02
0$
#110000
0!
00
01
1(
#115000
1!
10
11
0(
09
0;
1@
1?
1<
16
03
0%
05
04
0'
0&
#120000
0!
00
01
1(
#125000
1!
10
11
0(
1=
19
0@
06
15
1'
#130000
0!
00
01
1(
#135000
1!
10
11
0(
09
0?
0<
1:
14
1&
#140000
0!
00
01
1(
#145000
1!
10
11
0(
0=
1;
16
13
1%
1>
12
1$
#150000
0#
0!
0/
00
01
1(
0:
#155000
1!
10
11
0(
19
0;
1?
06
03
0%
04
0&
#160000
0!
00
01
1(
#165000
1!
10
11
0(
09
1@
1<
1:
16
0>
05
02
0'
0$
#170000
0!
00
01
1(
#175000
1!
10
11
0(
1=
19
1;
0?
0<
06
13
1%
14
1&
#180000
0!
00
01
1(
#185000
1!
10
11
0(
0=
09
0@
0:
16
1>
15
12
1'
1$
#190000
0!
00
01
1(
#195000
1!
10
11
0(
19
0;
1?
06
03
0%
04
0&
#200000
0!
00
01
1(
#205000
1!
10
11
0(
09
1@
1<
1:
16
0>
05
02
0'
0$
#210000
0!
00
01
1(
#215000
1!
10
11
0(
1=
19
1;
0?
0<
06
13
1%
14
1&
#220000
0!
00
01
1(
#225000
1!
10
11
0(
0=
09
0@
0:
16
1>
15
12
1'
1$
#230000
0!
00
01
1(
#235000
1!
10
11
0(
19
0;
1?
06
03
0%
04
0&
#240000
0!
00
01
1(
#245000
1!
10
11
0(
09
1@
1<
1:
16
0>
05
02
0'
0$
#250000
0!
00
01
1(
#255000
1!
10
11
0(
1=
19
1;
0?
0<
06
13
1%
14
1&
#260000
0!
00
01
1(
#265000
1!
10
11
0(
0=
09
0@
0:
16
1>
15
12
1'
1$
#270000
0!
00
01
1(
#275000
1!
10
11
0(
19
0;
1?
06
03
0%
04
0&
#280000
0!
00
01
1(
#285000
1!
10
11
0(
09
1@
1<
1:
16
0>
05
02
0'
0$
#290000
0!
00
01
1(
#295000
1!
10
11
0(
1=
19
1;
0?
0<
06
13
1%
14
1&
#300000
0!
00
01
1(
#305000
1!
10
11
0(
0=
09
0@
0:
16
1>
15
12
1'
1$
#310000
0!
00
01
1(
#315000
1!
10
11
0(
19
0;
1?
06
03
0%
04
0&
#320000
0!
00
01
1(
#325000
1!
10
11
0(
09
1@
1<
1:
16
0>
05
02
0'
0$
#330000
0!
00
01
1(
#335000
1!
10
11
0(
1=
19
1;
0?
0<
06
13
1%
14
1&
#340000
0!
00
01
1(
#345000
1!
10
11
0(
0=
09
0@
0:
16
1>
15
12
1'
1$
#350000
0!
00
01
1(
#355000
1!
10
11
0(
19
0;
1?
06
03
0%
04
0&
#360000
0!
00
01
1(
#365000
1!
10
11
0(
09
1@
1<
1:
16
0>
05
02
0'
0$
#370000
0!
00
01
1(
#375000
1!
10
11
0(
1=
19
1;
0?
0<
06
13
1%
14
1&
#380000
0!
00
01
1(
#385000
1!
10
11
0(
0=
09
0@
0:
16
1>
15
12
1'
1$
#390000
0!
00
01
1(
#395000
1!
10
11
0(
19
0;
1?
06
03
0%
04
0&
#400000
1#
0!
1/
00
01
1(
#405000
1!
10
11
0(
09
1@
1<
16
0>
05
02
0'
0$
#410000
0!
00
01
1(
#415000
1!
10
11
0(
1=
19
0@
06
15
1'
#420000
0!
00
01
1(
#425000
1!
10
11
0(
09
0?
0<
1:
14
1&
#430000
0!
00
01
1(
#435000
1!
10
11
0(
0=
1;
16
13
1%
1>
12
1$
#440000
0!
00
01
1(
#445000
1!
10
11
0(
19
0:
06
0>
02
0$
#450000
0#
0!
0/
00
01
1(
#455000
1!
10
11
0(
09
0;
1@
1?
1<
1:
16
03
0%
05
04
0'
0&
#460000
0!
00
01
1(
#465000
1!
10
11
0(
1=
19
1;
0?
0<
06
13
1%
14
1&
#470000
0!
00
01
1(
#475000
1!
10
11
0(
0=
09
0@
0:
16
1>
15
12
1'
1$
#480000
0!
00
01
1(
#485000
1!
10
11
0(
19
0;
1?
06
03
0%
04
0&
#490000
0!
00
01
1(
#495000
1!
10
11
0(
09
1@
1<
1:
16
0>
05
02
0'
0$
#500000
0!
00
01
1(
#505000
1!
10
11
0(
1=
19
1;
0?
0<
06
13
1%
14
1&
#510000
0!
00
01
1(
#515000
1!
10
11
0(
0=
09
0@
0:
16
1>
15
12
1'
1$
#520000
0!
00
01
1(
#525000
1!
10
11
0(
19
0;
1?
06
03
0%
04
0&
#530000
0!
00
01
1(
#535000
1!
10
11
0(
09
1@
1<
1:
16
0>
05
02
0'
0$
#540000
0!
00
01
1(
#545000
1!
10
11
0(
1=
19
1;
0?
0<
06
13
1%
14
1&
#550000
1#
0!
1/
00
01
1(
#555000
1!
10
11
0(
0=
09
0@
16
1>
15
12
1'
1$
#560000
0!
00
01
1(
#565000
1!
10
11
0(
19
0:
06
0>
02
0$
#570000
0!
00
01
1(
#575000
1!
10
11
0(
09
0;
1@
1?
1<
16
03
0%
05
04
0'
0&
#580000
0!
00
01
1(
#585000
1!
10
11
0(
1=
19
0@
06
15
1'
#590000
0!
00
01
1(
#595000
1!
10
11
0(
09
0?
0<
1:
14
1&
#600000
0!
00
01
1(
#605000
1!
10
11
0(
0=
1;
16
13
1%
1>
12
1$
#610000
0!
00
01
1(
#615000
1!
10
11
0(
19
0:
06
0>
02
0$
#620000
0!
00
01
1(
#625000
1!
10
11
0(
09
0;
1@
1?
1<
16
03
0%
05
04
0'
0&
#630000
0!
00
01
1(
#635000
1!
10
11
0(
1=
19
0@
06
15
1'
#640000
0!
00
01
1(
#645000
1!
10
11
0(
09
0?
0<
1:
14
1&
#650000
0#
0!
0/
00
01
1(
#655000
1!
10
11
0(
0=
1;
0:
16
13
1%
1>
12
1$
#660000
0!
00
01
1(
#665000
1!
10
11
0(
19
0;
1?
06
03
0%
04
0&
#670000
0!
00
01
1(
#675000
1!
10
11
0(
09
1@
1<
1:
16
0>
05
02
0'
0$
#680000
0!
00
01
1(
#685000
1!
10
11
0(
1=
19
1;
0?
0<
06
13
1%
14
1&
#690000
0!
00
01
1(
#695000
1!
10
11
0(
0=
09
0@
0:
16
1>
15
12
1'
1$
#700000
1#
0!
1/
00
01
1(
1:
#705000
1!
10
11
0(
19
0:
06
0>
02
0$
#710000
0!
00
01
1(
#715000
1!
10
11
0(
09
0;
1@
1?
1<
16
03
0%
05
04
0'
0&
#720000
0!
00
01
1(
#725000
1!
10
11
0(
1=
19
0@
06
15
1'
#730000
0!
00
01
1(
#735000
1!
10
11
0(
09
0?
0<
1:
14
1&
#740000
0!
00
01
1(
#745000
1!
10
11
0(
0=
1;
16
13
1%
1>
12
1$
#750000
0#
0!
0/
00
01
1(
0:
#755000
1!
10
11
0(
19
0;
1?
06
03
0%
04
0&
#760000
0!
00
01
1(
#765000
1!
10
11
0(
09
1@
1<
1:
16
0>
05
02
0'
0$
#770000
0!
00
01
1(
#775000
1!
10
11
0(
1=
19
1;
0?
0<
06
13
1%
14
1&
#780000
0!
00
01
1(
#785000
1!
10
11
0(
0=
09
0@
0:
16
1>
15
12
1'
1$
#790000
0!
00
01
1(
#795000
1!
10
11
0(
19
0;
1?
06
03
0%
04
0&
#800000
0!
00
01
1(
#805000
1!
10
11
0(
09
1@
1<
1:
16
0>
05
02
0'
0$
#810000
0!
00
01
1(
#815000
1!
10
11
0(
1=
19
1;
0?
0<
06
13
1%
14
1&
#820000
0!
00
01
1(
#825000
1!
10
11
0(
0=
09
0@
0:
16
1>
15
12
1'
1$
#830000
0!
00
01
1(
#835000
1!
10
11
0(
19
0;
1?
06
03
0%
04
0&
#840000
0!
00
01
1(
#845000
1!
10
11
0(
09
1@
1<
1:
16
0>
05
02
0'
0$
#850000
0!
00
01
1(
#855000
1!
10
11
0(
1=
19
1;
0?
0<
06
13
1%
14
1&
#860000
0!
00
01
1(
#865000
1!
10
11
0(
0=
09
0@
0:
16
1>
15
12
1'
1$
#870000
0!
00
01
1(
#875000
1!
10
11
0(
19
0;
1?
06
03
0%
04
0&
#880000
0!
00
01
1(
#885000
1!
10
11
0(
09
1@
1<
1:
16
0>
05
02
0'
0$
#890000
0!
00
01
1(
#895000
1!
10
11
0(
1=
19
1;
0?
0<
06
13
1%
14
1&
#900000
1#
0!
1/
00
01
1(
#905000
1!
10
11
0(
0=
09
0@
16
1>
15
12
1'
1$
#910000
0!
00
01
1(
#915000
1!
10
11
0(
19
0:
06
0>
02
0$
#920000
0!
00
01
1(
#925000
1!
10
11
0(
09
0;
1@
1?
1<
16
03
0%
05
04
0'
0&
#930000
0!
00
01
1(
#935000
1!
10
11
0(
1=
19
0@
06
15
1'
#940000
0!
00
01
1(
#945000
1!
10
11
0(
09
0?
0<
1:
14
1&
#950000
0#
0!
0/
00
01
1(
#955000
1!
10
11
0(
0=
1;
0:
16
13
1%
1>
12
1$
#960000
0!
00
01
1(
#965000
1!
10
11
0(
19
0;
1?
06
03
0%
04
0&
#970000
0!
00
01
1(
#975000
1!
10
11
0(
09
1@
1<
1:
16
0>
05
02
0'
0$
#980000
0!
00
01
1(
#985000
1!
10
11
0(
1=
19
1;
0?
0<
06
13
1%
14
1&
#990000
0!
00
01
1(
#995000
1!
10
11
0(
0=
09
0@
0:
16
1>
15
12
1'
1$
