Parte_E/simulation/qsim/maqestados.msim.vcd
$comment
	File created using the following command:
		vcd file maqestados.msim.vcd -direction
$end
$date
	Thu Oct 30 13:42:43 2025
$end
$version
	ModelSim Version 10.1d
$end
$timescale
	1ps
$end
$scope module maqestados_vlg_vec_tst $end
$var reg 1 ! clock $end
$var reg 1 " reset $end
$var reg 1 # x $end
$var wire 1 $ z0 $end
$var wire 1 % z1 $end
$var wire 1 & z2 $end
$var wire 1 ' z3 $end
$var wire 1 ( sampler $end
$scope module i1 $end
$var wire 1 ) gnd $end
$var wire 1 * vcc $end
$var wire 1 + unknown $end
$var tri1 1 , devclrn $end
$var tri1 1 - devpor $end
$var tri1 1 . devoe $end
$var wire 1 / x~input_o $end
$var wire 1 0 clock~input_o $end
$var wire 1 1 clock~inputclkctrl_outclk $end
$var wire 1 2 z0~output_o $end
$var wire 1 3 z1~output_o $end
$var wire 1 4 z2~output_o $end
$var wire 1 5 z3~output_o $end
$var wire 1 6 fstate.A~0_combout $end
$var wire 1 7 reset~input_o $end
$var wire 1 8 reset~inputclkctrl_outclk $end
$var wire 1 9 fstate.state_bit_0~q $end
$var wire 1 : fstate.state_bit_1~0_combout $end
$var wire 1 ; fstate.state_bit_1~q $end
$var wire 1 < fstate.state_bit_2~0_combout $end
$var wire 1 = fstate.state_bit_2~q $end
$var wire 1 > z0~0_combout $end
$var wire 1 ? WideOr3~0_combout $end
$var wire 1 @ z3~0_combout $end
$upscope $end
$upscope $end
$enddefinitions $end
#0
$dumpvars
0!
0"
0#
0$
0%
0&
0'
x(
0)
1*
x+
1,
1-
1.
0/
00
01
02
03
04
05
16
07
08
09
1:
0;
1<
0=
0>
1?
1@
$end
#25000
1!
10
11
0(
1=
19
1;
0?
0<
06
13
1%
14
1&
#50000
0!
00
01
1(
#75000
1!
10
11
0(
0=
09
0@
0:
16
1>
15
12
1'
1$
#100000
1#
0!
1/
00
01
1(
1:
#125000
1!
10
11
0(
19
0:
06
0>
02
0$
#150000
0#
0!
0/
00
01
1(
#175000
1!
10
11
0(
09
0;
1@
1?
1<
1:
16
03
0%
05
04
0'
0&
#200000
0!
00
01
1(
#225000
1!
10
11
0(
1=
19
1;
0?
0<
06
13
1%
14
1&
#250000
0!
00
01
1(
#275000
1!
10
11
0(
0=
09
0@
0:
16
1>
15
12
1'
1$
#300000
0!
00
01
1(
#325000
1!
10
11
0(
19
0;
1?
06
03
0%
04
0&
#350000
0!
00
01
1(
#375000
1!
10
11
0(
09
1@
1<
1:
16
0>
05
02
0'
0$
#400000
1#
0!
1/
00
01
1(
0:
#425000
1!
10
11
0(
1=
19
0@
06
15
1'
#450000
0#
0!
0/
00
01
1(
#475000
1!
10
11
0(
09
0?
0<
1:
14
1&
#500000
0!
00
01
1(
#525000
1!
10
11
0(
0=
1;
0:
16
13
1%
1>
12
1$
#550000
1#
0!
1/
00
01
1(
1:
#575000
1!
10
11
0(
19
0:
06
0>
02
0$
#600000
0!
00
01
1(
#625000
1!
10
11
0(
09
0;
1@
1?
1<
16
03
0%
05
04
0'
0&
#650000
0#
0!
0/
00
01
1(
1:
#675000
1!
10
11
0(
1=
19
1;
0?
0<
06
13
1%
14
1&
#700000
1#
0!
1/
00
01
1(
#725000
1!
10
11
0(
0=
09
0@
16
1>
15
12
1'
1$
#750000
0#
0!
0/
00
01
1(
0:
#775000
1!
10
11
0(
19
0;
1?
06
03
0%
04
0&
#800000
0!
00
01
1(
#825000
1!
10
11
0(
09
1@
1<
1:
16
0>
05
02
0'
0$
#850000
0!
00
01
1(
#875000
1!
10
11
0(
1=
19
1;
0?
0<
06
13
1%
14
1&
#900000
1#
0!
1/
00
01
1(
#925000
1!
10
11
0(
0=
09
0@
16
1>
15
12
1'
1$
#950000
0#
0!
0/
00
01
1(
0:
#975000
1!
10
11
0(
19
0;
1?
06
03
0%
04
0&
