Parte_B/simulation/qsim/multi2sinsigno.msim.vcd
$comment
	File created using the following command:
		vcd file multi2sinsigno.msim.vcd -direction
$end
$date
	Mon Oct 27 21:02:05 2025
$end
$version
	ModelSim Version 10.1d
$end
$timescale
	1ps
$end
$scope module multi2sinsigno_vlg_vec_tst $end
$var reg 1 ! a0 $end
$var reg 1 " a1 $end
$var reg 1 # b0 $end
$var reg 1 $ b1 $end
$var reg 1 % Cin $end
$var wire 1 & Out0 $end
$var wire 1 ' Out1 $end
$var wire 1 ( Out2 $end
$var wire 1 ) Out3 $end
$var wire 1 * sampler $end
$scope module i1 $end
$var wire 1 + gnd $end
$var wire 1 , vcc $end
$var wire 1 - unknown $end
$var tri1 1 . devclrn $end
$var tri1 1 / devpor $end
$var tri1 1 0 devoe $end
$var wire 1 1 Out0~output_o $end
$var wire 1 2 Out1~output_o $end
$var wire 1 3 Out3~output_o $end
$var wire 1 4 Out2~output_o $end
$var wire 1 5 a0~input_o $end
$var wire 1 6 b0~input_o $end
$var wire 1 7 inst2~combout $end
$var wire 1 8 a1~input_o $end
$var wire 1 9 inst4~combout $end
$var wire 1 : Cin~input_o $end
$var wire 1 ; b1~input_o $end
$var wire 1 < inst|Sum~combout $end
$var wire 1 = inst5~combout $end
$var wire 1 > inst3~combout $end
$var wire 1 ? inst1|Cout~0_combout $end
$var wire 1 @ inst|Cout~0_combout $end
$var wire 1 A inst1|Sum~2_combout $end
$upscope $end
$upscope $end
$enddefinitions $end
#0
$dumpvars
1!
0"
1#
0$
0%
1&
0'
0(
0)
x*
0+
1,
x-
1.
1/
10
11
02
03
04
15
16
17
08
09
0:
0;
0<
0=
0>
0?
0@
0A
$end
#35000
1$
0#
1;
06
0*
1=
1<
07
12
01
1'
0&
#70000
0!
05
1*
0=
0<
02
0'
#105000
1#
16
0*
#140000
1!
0#
15
06
1*
1=
1<
12
1'
#175000
1"
1#
18
16
0*
1@
1>
19
1A
17
14
11
1(
1&
0A
1?
0<
04
13
02
0(
1)
0'
#210000
0"
0#
08
06
1*
0@
0>
09
1A
07
14
01
1(
0&
0A
0?
1<
04
03
12
0(
0)
1'
#245000
1"
18
0*
1>
1A
14
1(
#280000
0$
0!
0"
0;
05
08
1*
0>
0=
0A
0<
04
02
0(
0'
#315000
1$
1!
1"
1;
15
18
0*
1>
1=
1A
1<
14
12
1(
1'
#350000
1#
16
1*
1@
19
17
11
1&
0A
1?
0<
04
13
02
0(
1)
0'
#385000
0$
0!
0"
0;
05
08
0*
0>
0=
0@
09
1A
1<
07
14
12
01
1(
1'
0&
0?
0A
0<
03
04
02
0)
0(
0'
#420000
0#
1$
1!
06
1;
15
1*
1=
1<
12
1'
#455000
1#
16
0*
17
11
1&
#490000
0$
0!
0#
0;
05
06
1*
0=
0<
07
02
01
0'
0&
#525000
1$
1!
1;
15
0*
1=
1<
12
1'
#595000
1"
1#
0$
18
16
0;
1*
1@
19
0=
17
0<
0@
11
02
1&
0'
1A
1<
14
12
1(
1'
0A
04
0(
#665000
0#
06
0*
09
07
01
0&
0<
02
0'
#700000
0!
0"
1#
05
08
16
1*
#770000
1!
1"
15
18
0*
19
17
11
1&
1<
12
1'
#805000
1$
1;
1*
1>
1=
1A
0<
1@
14
02
1(
0'
1?
13
1)
0A
04
0(
#840000
0#
0!
0"
06
05
08
0*
0@
09
0=
0>
07
1<
1A
01
12
14
0&
1'
1(
0A
0?
0<
04
03
02
0(
0)
0'
#875000
0$
1#
0;
16
1*
#910000
1!
0#
15
06
0*
#945000
1"
1#
18
16
1*
19
17
11
1&
1<
12
1'
#980000
1$
0!
0"
0#
1;
05
08
06
0*
09
07
01
0&
0<
02
0'
