Parte A/simulation/qsim/Sumador_Completo.msim.vcd
$comment
	File created using the following command:
		vcd file Sumador_Completo.msim.vcd -direction
$end
$date
	Wed Oct 22 21:25:18 2025
$end
$version
	ModelSim Version 10.1d
$end
$timescale
	1ps
$end
$scope module Sumador_Completo_vlg_vec_tst $end
$var reg 1 ! A $end
$var reg 1 " B $end
$var reg 1 # Cin $end
$var wire 1 $ Cout $end
$var wire 1 % Sum $end
$var wire 1 & sampler $end
$scope module i1 $end
$var wire 1 ' gnd $end
$var wire 1 ( vcc $end
$var wire 1 ) unknown $end
$var tri1 1 * devclrn $end
$var tri1 1 + devpor $end
$var tri1 1 , devoe $end
$var wire 1 - Cout~output_o $end
$var wire 1 . Sum~output_o $end
$var wire 1 / A~input_o $end
$var wire 1 0 B~input_o $end
$var wire 1 1 Cin~input_o $end
$var wire 1 2 Cout~0_combout $end
$var wire 1 3 Sum~0_combout $end
$upscope $end
$upscope $end
$enddefinitions $end
#0
$dumpvars
0!
0"
0#
x$
x%
x&
0'
1(
x)
1*
1+
1,
x-
x.
0/
00
01
x2
x3
$end
#4063
02
#4332
03
#6945
0-
0$
#7492
0.
0%
#50000
1"
1#
1!
0&
#50766
10
#50786
1/
#50806
11
#54148
13
#54565
12
#57423
1.
1%
#57552
1-
1$
#100000
0#
0!
1&
#100893
0/
#100913
01
#104502
03
#105211
02
#105217
13
#108093
0-
0$
#150000
1#
1!
0&
#150786
1/
#150806
11
#154142
03
#154147
12
#154807
13
#157134
1-
1$
#200000
0!
1&
#200893
0/
#205225
03
#208385
0.
0%
#250000
0"
1!
0&
#250786
1/
#250873
00
#300000
1"
1&
#300766
10
#304605
13
#307880
1.
1%
#350000
0!
0"
0&
#350873
00
#350893
0/
#355211
02
#358093
0-
0$
#400000
1!
1"
1&
#400766
10
#400786
1/
#404565
12
#407552
1-
1$
#450000
0"
0&
#450873
00
#454956
03
#458116
0.
0%
#500000
0#
0!
1"
1&
#500766
10
#500893
0/
#500913
01
#505211
02
#505217
13
#508093
0-
0$
#508492
1.
1%
#550000
1#
1!
0&
#550786
1/
#550806
11
#554142
03
#554147
12
#554807
13
#557134
1-
1$
#600000
0"
0!
1&
#600873
00
#600893
0/
#605211
02
#608093
0-
0$
#650000
0#
0&
#650913
01
#654502
03
#657662
0.
0%
#700000
1"
1&
#700766
10
#704605
13
#707880
1.
1%
#750000
0"
0&
#750873
00
#754956
03
#758116
0.
0%
#800000
1!
1#
1&
#800786
1/
#800806
11
#804148
13
#804777
12
#804815
03
#807764
1-
1$
#850000
0#
0&
#850913
01
#854501
02
#854508
13
#857383
0-
0$
#857783
1.
1%
#900000
1"
1&
#900766
10
#904565
12
#904607
03
#907552
1-
1$
#907767
0.
0%
#950000
1#
0&
#950806
11
#954148
13
#957423
1.
1%
